NPC_001 3 NPC_WAYPOINT_000 NPC_WAYPOINT_001 NPC_WAYPOINT_002
NPC_002 2 NPC_WAYPOINT_003 NPC_WAYPOINT_004
NPC_003 2 NPC_WAYPOINT_005 NPC_WAYPOINT_006
NPC_004	2 NPC_WAYPOINT_007 NPC_WAYPOINT_008
NPC_005 3 NPC_WAYPOINT_009 NPC_WAYPOINT_010 NPC_WAYPOINT_011
NPC_006 2 NPC_WAYPOINT_012 NPC_WAYPOINT_013
NPC_007 4 NPC_WAYPOINT_014 NPC_WAYPOINT_015 NPC_WAYPOINT_016 NPC_WAYPOINT_017
NPC_008 3 NPC_WAYPOINT_018 NPC_WAYPOINT_019 NPC_WAYPOINT_020
NPC_009 2 NPC_WAYPOINT_021 NPC_WAYPOINT_022
NPC_010 2 NPC_WAYPOINT_023 NPC_WAYPOINT_024
NPC_011 2 NPC_WAYPOINT_025 NPC_WAYPOINT_026
NPC_012 2 NPC_WAYPOINT_027 NPC_WAYPOINT_028
NPC_013 3 NPC_WAYPOINT_029 NPC_WAYPOINT_030 NPC_WAYPOINT_031